{"_id":{"oid":"5b90f5fef60b921428173a59"},"md5":"7cc4f009d6784656fdbcddc7906d8ba4","raw_txt":"手术日期：2013年11月26日 手术名称：右半肝切除术+胆囊切除术 术前诊断：1、右肝占位性病变  2、慢性乙型病毒性肝炎 3、胆囊胆固醇沉着症 4、肝囊肿 术中诊断：1、右肝细胞癌 2、慢性乙型病毒性肝炎 3、胆囊胆固醇沉着症 4、肝囊肿 手术者及助手姓名：*** 手术过程描述：1、麻醉起效后病人平卧，手术野常规消毒铺巾，取右肋缘下切口长约20cm，逐层切开至腹膜并止血。2、术中探查如上述。3、离断肝圆韧带，离断镰状韧带、右肝冠状韧带、右三角韧带，游离肝右叶。4、解剖第一肝门，解剖出右肝动脉、右门静脉并结扎。5、Ligasure+超声刀切除肿瘤，分别缝扎肝断面各管道及出血，填塞纤丝充分止血，检查无活动性出血及胆漏。6、纤丝包裹肝断面，于肝断面及温氏孔处各置入潘氏引流管一根，戳孔引出。查术野无出血、无胆漏，嘱清点器械、纱条对数，逐层缝合切口术毕。7、术中出血约1300ml，予输红细胞悬液600ml、血浆200ml，手术顺利，麻醉满意，患者生命体征平稳，标本由手术室送病检。        手术发现：术中见大网膜与胆囊、肝脏无明显粘连。右肝Ⅶ、Ⅷ段有一直径约9*7cm大小包块，质硬，左肝质地可，未见明显包块。术中Ｂ超提示右肝占位，左肝无明显异常，肝小囊肿，胆囊可见胆固醇沉积。术后剖视标本，包块呈鱼肉状，周围有数个卫星灶，其中心见坏死液化，门静脉内未见癌栓，肝脏边缘及门静脉右支残端未见明显肿瘤组织浸润。胆囊壁增厚约0.2cm，胆囊壁内含胆固醇沉着，直径约0.5cm。\n"}
{"_id":{"oid":"5b8e1eb3f60b920a988182b6"},"md5":"4a79de2501e3b0345f52e89d5185fd91","raw_txt":"     手术日期：2014年8月27日 手术名称：右肝癌切除术 术前诊断：肝占位 术中诊断：肝癌 手术者及助手姓名：陈晓理 手术过程描述：1.患者仰卧位，气管插管全麻，常规消毒铺巾；2.取右上腹反“L”型切口，逐层切开腹壁各层，进入腹腔；3.解剖肝脏与腹壁、网膜及肠管之间粘连，术中探查肝脏肿瘤如上述，决定行肝脏肿瘤局部切除；4.解剖并切开右侧冠状韧带及三角韧带，分离肝脏与膈肌之间粘连直至下腔静脉右侧，如此充分游离右侧肝脏。5.术中超声造影定位肿瘤位置；6.以超声刀及电刀配合逐层切开肝脏实质，遇血管及胆管以丝线结束或缝并切断，切除第Ⅴ段肿瘤。肝脏断面彻底止血；标本快速冰冻；7.冲洗腹腔，活动性出血以血管性缝扎止血。肝脏断面以止血纱覆盖；右肝断面放置血浆管1根，从右侧腹壁穿出并固定；8.清点纱布及器械无误后，逐层关腹。术后患者安返病房，肝脏标本送病检。        手术发现： 腹腔内少量腹水。肝脏表面大小不等黄豆大小颗粒、质忍、大小尚正常。肝脏未扪及明显包块。术中超声示：右肝。术中超声：肝脏实质回声粗糙、不均匀，右肝包膜下查见大小约1.3*1.2cm的弱回声结节，边界较清，形态较规则，内部回声不均匀，未见明显血流信号。超声造影，经肘静脉注入超声造影剂诺维后，动脉期呈稍高增强，门脉期及延迟期呈稍低增强。于肝表面定位上述团块。术中冰冻结果示：肝脏结节性肝硬化伴肝细胞癌。\n"}
{"_id":{"oid":"5b8e26d8f60b920a988182bc"},"md5":"041b5de9ed7c34807576e96675c14088","raw_txt":"手术日期：2013年11月23日 手术名称：右肝癌切除术 术前诊断：1、右肝占位性病变：HCC? 2、乙型病毒性肝炎（复诊） 3、肺结节病 术中诊断：1、右肝癌 2、乙型病毒性肝炎（复诊） 3、肺结节病 手术者及助手姓名：*** 手术过程描述：1、患者取仰卧位，全麻满意后常规消毒铺巾；2、取右肋缘下斜切口，逐层进腹；3、探查腹腔，术中所见见手术发现；4、距肿瘤边缘3cm作预切线；于预切线两侧各作一排牵引线；5、沿预切线用超声刀、电刀及钛夹配合完整切除肿物。6、冲洗腹腔，确切止血，于肝创面置腹腔引流管一根；查看术野无活动性出血，清点手术器械、纱布无误后逐层关腹；7、手术顺利，术中出血约200ml。肿物送病理检查，术毕患者安返病房。        手术发现：肝脏大小、比例如常。扪及肿物位于肝右叶第Ⅵ段内，质中，边界尚清，约2cm*2cm大小。完整切除肿物，剖开检视，见肿物剖面呈椭圆形，边界清，呈乳黄色。边缘距肝切缘约3cm。"}
